\relax 
\catcode`"\active
\providecommand\HyperFirstAtBeginDocument{\AtBeginDocument}
\HyperFirstAtBeginDocument{\ifx\hyper@anchor\@undefined
\global\let\oldcontentsline\contentsline
\gdef\contentsline#1#2#3#4{\oldcontentsline{#1}{#2}{#3}}
\global\let\oldnewlabel\newlabel
\gdef\newlabel#1#2{\newlabelxx{#1}#2}
\gdef\newlabelxx#1#2#3#4#5#6{\oldnewlabel{#1}{{#2}{#3}}}
\AtEndDocument{\ifx\hyper@anchor\@undefined
\let\contentsline\oldcontentsline
\let\newlabel\oldnewlabel
\fi}
\fi}
\global\let\hyper@last\relax 
\gdef\HyperFirstAtBeginDocument#1{#1}
\providecommand\HyField@AuxAddToFields[1]{}
\select@language{italian}
\@writefile{toc}{\select@language{italian}}
\@writefile{lof}{\select@language{italian}}
\@writefile{lot}{\select@language{italian}}
\@writefile{toc}{\contentsline {part}{I\hspace  {1em}Contratto}{1}{part.1}}
\@writefile{toc}{\contentsline {section}{\numberline {1}Parte Generale: 1-23}{1}{section.1}}
\@writefile{toc}{\contentsline {subsection}{\numberline {1.1}Articolo 1321}{1}{subsection.1.1}}
\@writefile{toc}{\contentsline {subsubsection}{\numberline {1.1.1}Accordo}{1}{subsubsection.1.1.1}}
\@writefile{toc}{\contentsline {subsubsection}{\numberline {1.1.2}Causa}{1}{subsubsection.1.1.2}}
\@writefile{toc}{\contentsline {subsubsection}{\numberline {1.1.3}Oggetto}{1}{subsubsection.1.1.3}}
\@writefile{toc}{\contentsline {subsubsection}{\numberline {1.1.4}Forma}{2}{subsubsection.1.1.4}}
\@writefile{toc}{\contentsline {section}{\numberline {2}Contratti nel codice civile}{2}{section.2}}
\@writefile{toc}{\contentsline {section}{\numberline {3}Contratti misti}{2}{section.3}}
\@writefile{toc}{\contentsline {subsubsection}{\numberline {3.0.5}Contratto complesso}{3}{subsubsection.3.0.5}}
\@writefile{toc}{\contentsline {subsubsection}{\numberline {3.0.6}Contratti collegati}{3}{subsubsection.3.0.6}}
\@writefile{toc}{\contentsline {subsubsection}{\numberline {3.0.7}Contratti accessori}{3}{subsubsection.3.0.7}}
\@writefile{toc}{\contentsline {section}{\numberline {4}Propriet\IeC {\`a} del software: Contratto di appalto}{3}{section.4}}
\@writefile{toc}{\contentsline {subsection}{\numberline {4.1}Consegna e accettazione}{4}{subsection.4.1}}
\@writefile{toc}{\contentsline {subsection}{\numberline {4.2}Problematiche}{4}{subsection.4.2}}
\@writefile{toc}{\contentsline {subsubsection}{\numberline {4.2.1}Vincoli per la software house}{4}{subsubsection.4.2.1}}
\@writefile{toc}{\contentsline {subsubsection}{\numberline {4.2.2}Royalties}{4}{subsubsection.4.2.2}}
\@writefile{toc}{\contentsline {subsubsection}{\numberline {4.2.3}Alienazione a terze parti}{4}{subsubsection.4.2.3}}
\@writefile{toc}{\contentsline {subsubsection}{\numberline {4.2.4}Diritti Esclusivi per il committente}{5}{subsubsection.4.2.4}}
\@writefile{toc}{\contentsline {subsubsection}{\numberline {4.2.5}Know-how}{5}{subsubsection.4.2.5}}
\@writefile{toc}{\contentsline {section}{\numberline {5}Ciclo di vita del sistema e Implicazioni giuridiche}{5}{section.5}}
\@writefile{toc}{\contentsline {subsection}{\numberline {5.1}Rilevanza giuridica della fase precontrattuale}{5}{subsection.5.1}}
\@writefile{toc}{\contentsline {subsubsection}{\numberline {5.1.1}Problematiche}{5}{subsubsection.5.1.1}}
\@writefile{toc}{\contentsline {subsubsection}{\numberline {5.1.2}Con cognizione di causa}{6}{subsubsection.5.1.2}}
\@writefile{toc}{\contentsline {subsubsection}{\numberline {5.1.3}La fine delle trattative}{6}{subsubsection.5.1.3}}
\@writefile{toc}{\contentsline {subsection}{\numberline {5.2}I documenti della fase precontrattuale}{6}{subsection.5.2}}
\@writefile{toc}{\contentsline {subsubsection}{\numberline {5.2.1}Lettere di intenti}{6}{subsubsection.5.2.1}}
\@writefile{toc}{\contentsline {subsubsection}{\numberline {5.2.2}Verbali di riunione}{7}{subsubsection.5.2.2}}
\@writefile{toc}{\contentsline {subsubsection}{\numberline {5.2.3}Accordi quadro}{7}{subsubsection.5.2.3}}
\@writefile{toc}{\contentsline {subsubsection}{\numberline {5.2.4}Minuta}{7}{subsubsection.5.2.4}}
\@writefile{toc}{\contentsline {subsubsection}{\numberline {5.2.5}Silenzio}{8}{subsubsection.5.2.5}}
\@writefile{toc}{\contentsline {subsubsection}{\numberline {5.2.6}Offerta e Promessa}{8}{subsubsection.5.2.6}}
\@writefile{toc}{\contentsline {subsubsection}{\numberline {5.2.7}Offerta diretta}{8}{subsubsection.5.2.7}}
\@writefile{toc}{\contentsline {subsubsection}{\numberline {5.2.8}Proposte e conclusione del contratto. }{8}{subsubsection.5.2.8}}
\@writefile{toc}{\contentsline {subsection}{\numberline {5.3}Buona fede e seriet\IeC {\`a} per le proposte}{8}{subsection.5.3}}
\@writefile{toc}{\contentsline {subsubsection}{\numberline {5.3.1}Articoli 1175 1337 e 1338}{9}{subsubsection.5.3.1}}
\@writefile{toc}{\contentsline {subsubsection}{\numberline {5.3.2}Articolo 1362}{9}{subsubsection.5.3.2}}
\@writefile{toc}{\contentsline {subsubsection}{\numberline {5.3.3}Articolo 2236}{9}{subsubsection.5.3.3}}
\@writefile{toc}{\contentsline {subsection}{\numberline {5.4}Responsabilit\IeC {\`a} Contrattuale}{9}{subsection.5.4}}
\@writefile{toc}{\contentsline {subsection}{\numberline {5.5}Inadempimento}{9}{subsection.5.5}}
\@writefile{toc}{\contentsline {subsubsection}{\numberline {5.5.1}Le clausole di esclusione della garanzia o responsabilit\IeC {\`a}}{10}{subsubsection.5.5.1}}
\@writefile{toc}{\contentsline {subsubsection}{\numberline {5.5.2}Esonero Generale}{10}{subsubsection.5.5.2}}
\@writefile{toc}{\contentsline {part}{II\hspace  {1em}Diritto d'autore}{10}{part.2}}
\@writefile{toc}{\contentsline {section}{\numberline {6}Articolo 110}{10}{section.6}}
