\relax 
\@writefile{toc}{\contentsline {section}{\numberline {1}Project analisys}{1}}
\@writefile{toc}{\contentsline {subsection}{\numberline {1.1}Tool requirements}{1}}
\@writefile{toc}{\contentsline {subsubsection}{\numberline {1.1.1}Editing}{1}}
\@writefile{toc}{\contentsline {subsubsection}{\numberline {1.1.2}Selection}{1}}
\@writefile{toc}{\contentsline {subsubsection}{\numberline {1.1.3}Navigation}{1}}
\@writefile{toc}{\contentsline {section}{\numberline {2}Implementation}{2}}
\@writefile{toc}{\contentsline {section}{\numberline {3}Mathematic details}{2}}
\@writefile{toc}{\contentsline {subsection}{\numberline {3.1}Camera Model}{2}}
\@writefile{toc}{\contentsline {subsection}{\numberline {3.2}Input}{2}}
\@writefile{toc}{\contentsline {subsubsection}{\numberline {3.2.1}Mouse}{2}}
\@writefile{toc}{\contentsline {section}{\numberline {4}Formulas}{2}}
\@writefile{toc}{\contentsline {subsection}{\numberline {4.1}Quaternion}{3}}
\@writefile{toc}{\contentsline {subsection}{\numberline {4.2}Rotation}{3}}
\@writefile{toc}{\contentsline {subsection}{\numberline {4.3}Sphere Notation}{3}}
